Site,Sitename,SysSize
IN-001T,"MJ Logistics, Haryana,",500.24
IN-002T,"Lingaya, Haryana,",250.9
IN-003T,"Amtek, Delhi,",227.2
IN-004T,"Sunbeam, Gurgaon,",297.25
IN-006T,"Brakes India, Padi, Chennai,",486.47
IN-008X,"ALP Lalru, Mactan, Punjab,",510.12
IN-010X,"ALP HQ, Gurgaon,",106
IN-014T,"Delphi Oragadam, Chennai,",1058.4
IN-015T,"Apollo Tyres, Oragadam, Chennai,",1814.4
IN-016T,"Delphi Mannur, Chennai,",831.6
IN-018X,"S&P Threads, Faridabad,",100.8
IN-021T,"Apollo Tyres, Limda, Vadodra,",910
IN-031T,"Texmo Pipes, Burhanpur,",760.2
IN-036S,"BESCOM, Hubli,",4511
